SistemadeIrrigacao/simulation/qsim/SistemaDeIrrigacao.msim.vcd
$comment
	File created using the following command:
		vcd file SistemaDeIrrigacao.msim.vcd -direction
$end
$date
	Wed Jun 05 22:59:53 2024
$end
$version
	ModelSim Version 2020.1
$end
$timescale
	1ps
$end

$scope module top_module_vlg_vec_tst $end
$var reg 1 ! clk $end
$var reg 1 " reset $end
$var reg 1 # vs $end
$var wire 1 $ Dmin [3] $end
$var wire 1 % Dmin [2] $end
$var wire 1 & Dmin [1] $end
$var wire 1 ' Dmin [0] $end
$var wire 1 ( Dseg [3] $end
$var wire 1 ) Dseg [2] $end
$var wire 1 * Dseg [1] $end
$var wire 1 + Dseg [0] $end
$var wire 1 , Umin [3] $end
$var wire 1 - Umin [2] $end
$var wire 1 . Umin [1] $end
$var wire 1 / Umin [0] $end
$var wire 1 0 Useg [3] $end
$var wire 1 1 Useg [2] $end
$var wire 1 2 Useg [1] $end
$var wire 1 3 Useg [0] $end
$var wire 1 4 dezenas_min [3] $end
$var wire 1 5 dezenas_min [2] $end
$var wire 1 6 dezenas_min [1] $end
$var wire 1 7 dezenas_min [0] $end
$var wire 1 8 unidades_min [3] $end
$var wire 1 9 unidades_min [2] $end
$var wire 1 : unidades_min [1] $end
$var wire 1 ; unidades_min [0] $end

$scope module i1 $end
$var wire 1 < gnd $end
$var wire 1 = vcc $end
$var wire 1 > unknown $end
$var tri1 1 ? devclrn $end
$var tri1 1 @ devpor $end
$var tri1 1 A devoe $end
$var wire 1 B clk~combout $end
$var wire 1 C ds|ff1|Q~regout $end
$var wire 1 D ds|ff2|Q~regout $end
$var wire 1 E ds|ff3|Q~regout $end
$var wire 1 F ds|WideAnd1~combout $end
$var wire 1 G vs~combout $end
$var wire 1 H um|comb~0_combout $end
$var wire 1 I um|ff0|Q~0_combout $end
$var wire 1 J um|ff0|Q~regout $end
$var wire 1 K um|ff1|Q~regout $end
$var wire 1 L um|ff2|Q~regout $end
$var wire 1 M um|ff3|Q~regout $end
$var wire 1 N um|WideAnd1~combout $end
$var wire 1 O dm|ff0|Q~regout $end
$var wire 1 P dm|ff1|Q~regout $end
$var wire 1 Q dm|ff2|Q~regout $end
$var wire 1 R dm|ff3|Q~regout $end
$var wire 1 S always0~0_combout $end
$var wire 1 T always0~1_combout $end
$var wire 1 U Equal6~0_combout $end
$var wire 1 V Equal7~0_combout $end
$var wire 1 W us|ff2|Q~regout $end
$var wire 1 X us|ff3|Q~regout $end
$var wire 1 Y Equal4~0_combout $end
$var wire 1 Z Equal5~0_combout $end
$var wire 1 [ lo~0_combout $end
$var wire 1 \ reset~combout $end
$var wire 1 ] lo~regout $end
$var wire 1 ^ us|ff0|Q~regout $end
$var wire 1 _ us|ff1|Q~regout $end
$var wire 1 ` us|WideAnd1~combout $end
$var wire 1 a ds|ff0|Q~regout $end
$upscope $end
$upscope $end
$enddefinitions $end
#0
$dumpvars
0!
0"
1#
1'
1&
0%
0$
1+
0*
1)
0(
1/
0.
0-
1,
13
02
01
10
17
16
05
04
1;
0:
09
18
0<
1=
x>
1?
1@
1A
0B
0C
0D
0E
0F
1G
0H
1I
1J
0K
0L
1M
0N
0O
1P
0Q
0R
0S
0T
1U
0V
0W
0X
1Y
1Z
0[
0\
0]
0^
0_
0`
0a
$end
#500
1!
1B
1]
0I
#1000
0!
0B
#1500
1!
1B
1^
0Y
03
#2000
0!
0B
#2500
1!
1B
1_
0^
1X
1W
12
11
00
13
#3000
0!
0B
#3500
1!
1B
1^
03
#4000
0!
0B
#4500
1!
1B
0_
0^
02
13
#5000
0!
0B
#5500
1!
1B
1^
03
#6000
0!
0B
#6500
1!
1B
1_
0^
0W
12
01
13
#7000
0!
0B
#7500
1!
1B
1^
03
#8000
0!
0B
#8500
1!
1B
0_
0^
02
13
#9000
0!
0B
#9500
1!
1B
1^
1`
03
1a
0Z
0+
#10000
0!
0B
#10500
1!
1B
1_
0^
0X
1W
0`
12
11
10
13
#11000
0!
0B
#11500
1!
1B
1^
03
#12000
0!
0B
#12500
1!
1B
0_
0^
02
13
#13000
0!
0B
#13500
1!
1B
1^
03
#14000
0!
0B
#14500
1!
1B
1_
0^
0W
12
01
13
#15000
0!
0B
#15500
1!
1B
1^
03
#16000
0!
0B
#16500
1!
1B
0_
0^
1Y
02
13
#17000
0!
0B
#17500
1!
1B
1^
0Y
03
#18000
0!
0B
#18500
1!
1B
1_
0^
1X
1W
12
11
00
13
#19000
0!
0B
#19500
1!
1B
1^
03
#20000
0!
0B
#20500
1!
1B
0_
0^
02
13
#21000
0!
0B
#21500
1!
1B
1^
03
#22000
0!
0B
#22500
1!
1B
1_
0^
0W
12
01
13
#23000
0!
0B
#23500
1!
1B
1^
03
#24000
0!
0B
#24500
1!
1B
0_
0^
02
13
#25000
0!
0B
#25500
1!
1B
1^
1`
03
0a
1D
1C
1*
0)
1+
#26000
0!
0B
#26500
1!
1B
1_
0^
0X
1W
0`
12
11
10
13
#27000
0!
0B
#27500
1!
1B
1^
03
#28000
0!
0B
#28500
1!
1B
0_
0^
02
13
#29000
0!
0B
#29500
1!
1B
1^
03
#30000
0!
0B
#30500
1!
1B
1_
0^
0W
12
01
13
#31000
0!
0B
#31500
1!
1B
1^
03
#32000
0!
0B
#32500
1!
1B
0_
0^
1Y
02
13
#33000
0!
0B
#33500
1!
1B
1^
0Y
03
#34000
0!
0B
#34500
1!
1B
1_
0^
1X
1W
12
11
00
13
#35000
0!
0B
#35500
1!
1B
1^
03
#36000
0!
0B
#36500
1!
1B
0_
0^
02
13
#37000
0!
0B
#37500
1!
1B
1^
03
#38000
0!
0B
#38500
1!
1B
1_
0^
0W
12
01
13
#39000
0!
0B
#39500
1!
1B
1^
03
#40000
0!
0B
#40500
1!
1B
0_
0^
02
13
#41000
0!
0B
#41500
1!
1B
1^
1`
03
1a
0+
#42000
0!
0B
#42500
1!
1B
1_
0^
0X
1W
0`
12
11
10
13
#43000
0!
0B
#43500
1!
1B
1^
03
#44000
0!
0B
#44500
1!
1B
0_
0^
02
13
#45000
0!
0B
#45500
1!
1B
1^
03
#46000
0!
0B
#46500
1!
1B
1_
0^
0W
12
01
13
#47000
0!
0B
#47500
1!
1B
1^
03
#48000
0!
0B
#48500
1!
1B
0_
0^
1Y
02
13
#49000
0!
0B
#49500
1!
1B
1^
0Y
03
#50000
0!
0B
#50500
1!
1B
1_
0^
1X
1W
12
11
00
13
#51000
0!
0B
#51500
1!
1B
1^
03
#52000
0!
0B
#52500
1!
1B
0_
0^
02
13
#53000
0!
0B
#53500
1!
1B
1^
03
#54000
0!
0B
#54500
1!
1B
1_
0^
0W
12
01
13
#55000
0!
0B
#55500
1!
1B
1^
03
#56000
0!
0B
#56500
1!
1B
0_
0^
02
13
#57000
0!
0B
#57500
1!
1B
1^
1`
03
0a
0C
0*
1+
#58000
0!
0B
#58500
1!
1B
1_
0^
0X
1W
0`
12
11
10
13
#59000
0!
0B
#59500
1!
1B
1^
03
#60000
0!
0B
#60500
1!
1B
0_
0^
02
13
#61000
0!
0B
#61500
1!
1B
1^
03
#62000
0!
0B
#62500
1!
1B
1_
0^
0W
12
01
13
#63000
0!
0B
#63500
1!
1B
1^
03
#64000
0!
0B
#64500
1!
1B
0_
0^
1Y
02
13
#65000
0!
0B
#65500
1!
1B
1^
0Y
03
#66000
0!
0B
#66500
1!
1B
1_
0^
1X
1W
12
11
00
13
#67000
0!
0B
#67500
1!
1B
1^
03
#68000
0!
0B
#68500
1!
1B
0_
0^
02
13
#69000
0!
0B
#69500
1!
1B
1^
03
#70000
0!
0B
#70500
1!
1B
1_
0^
0W
12
01
13
#71000
0!
0B
#71500
1!
1B
1^
03
#72000
0!
0B
#72500
1!
1B
0_
0^
02
13
#73000
0!
0B
#73500
1!
1B
1^
1`
03
1a
1F
0+
0J
0U
0/
1[
#74000
0!
0B
#74500
1!
1B
1_
0^
0X
1W
0`
12
11
10
13
#75000
0!
0B
#75500
1!
1B
1^
03
#76000
0!
0B
#76500
1!
1B
0_
0^
02
13
#77000
0!
0B
#77500
1!
1B
1^
03
#78000
0!
0B
#78500
1!
1B
1_
0^
0W
12
01
13
#79000
0!
0B
#79500
1!
1B
1^
03
#80000
0!
0B
#80500
1!
1B
0_
0^
1Y
02
13
0[
#81000
0!
0B
#81500
1!
1B
1^
0Y
03
1[
#82000
0!
0B
#82500
1!
1B
1_
0^
1X
1W
12
11
00
13
#83000
0!
0B
#83500
1!
1B
1^
03
#84000
0!
0B
#84500
1!
1B
0_
0^
02
13
#85000
0!
0B
#85500
1!
1B
1^
03
#86000
0!
0B
#86500
1!
1B
1_
0^
0W
12
01
13
#87000
0!
0B
#87500
1!
1B
1^
03
#88000
0!
0B
#88500
1!
1B
0_
0^
02
13
#89000
0!
0B
#89500
1!
1B
1^
1`
03
0a
1E
0D
1C
0F
1(
1*
1)
1+
#90000
0!
0B
#90500
1!
1B
1_
0^
0X
1W
0`
12
11
10
13
#91000
0!
0B
#91500
1!
1B
1^
03
#92000
0!
0B
#92500
1!
1B
0_
0^
02
13
#93000
0!
0B
#93500
1!
1B
1^
03
#94000
0!
0B
#94500
1!
1B
1_
0^
0W
12
01
13
#95000
0!
0B
#95500
1!
1B
1^
03
#96000
0!
0B
#96500
1!
1B
0_
0^
1Y
02
13
0[
#97000
0!
0B
#97500
1!
1B
1^
0Y
03
1[
#98000
0!
0B
#98500
1!
1B
1_
0^
1X
1W
12
11
00
13
#99000
0!
0B
#99500
1!
1B
1^
03
