SistemadeIrrigacao/simulation/qsim/SistemaDeIrrigacao.msim.vcd
$comment
	File created using the following command:
		vcd file SistemaDeIrrigacao.msim.vcd -direction
$end
$date
	Mon May 27 00:56:27 2024
$end
$version
	ModelSim Version 2020.1
$end
$timescale
	1ps
$end

$scope module decod7seg_vlg_vec_tst $end
$var reg 1 ! A $end
$var reg 1 " B $end
$var reg 1 # C $end
$var reg 1 $ D $end
$var wire 1 % a $end
$var wire 1 & b $end
$var wire 1 ' c $end
$var wire 1 ( d $end
$var wire 1 ) e $end
$var wire 1 * f $end
$var wire 1 + g $end

$scope module i1 $end
$var wire 1 , gnd $end
$var wire 1 - vcc $end
$var wire 1 . unknown $end
$var tri1 1 / devclrn $end
$var tri1 1 0 devpor $end
$var tri1 1 1 devoe $end
$var wire 1 2 A~combout $end
$var wire 1 3 B~combout $end
$var wire 1 4 C~combout $end
$var wire 1 5 D~combout $end
$var wire 1 6 a~0_combout $end
$var wire 1 7 b~0_combout $end
$var wire 1 8 c~0_combout $end
$var wire 1 9 d~0_combout $end
$var wire 1 : e~0_combout $end
$var wire 1 ; f~0_combout $end
$var wire 1 < g~0_combout $end
$upscope $end
$upscope $end
$enddefinitions $end
#0
$dumpvars
0!
0"
0#
0$
1%
1&
1'
1(
1)
1*
0+
0,
1-
x.
1/
10
11
02
03
04
05
16
17
18
19
1:
0;
0<
$end
#5000
1!
12
1<
1+
#10000
1"
0!
13
02
0:
09
06
0)
0(
0%
#15000
1!
12
1:
19
16
1)
1(
1%
#20000
1#
0"
0!
14
03
02
1;
08
0'
0*
#25000
1!
12
0;
18
1'
1*
#30000
1"
0!
13
02
07
0&
#35000
1!
12
17
1&
#40000
1$
0#
0"
0!
15
04
03
02
0<
1;
0:
09
06
0+
0)
0(
0%
0*
#45000
1!
12
1<
0;
19
16
1+
1(
1%
1*
#50000
1"
0!
13
02
07
0&
#55000
1!
12
1:
17
1)
1&
#60000
1#
0"
0!
14
03
02
1;
0:
0)
0*
#65000
1!
12
0;
1:
1)
1*
#70000
1"
0!
13
02
0<
0:
09
0+
0)
0(
#75000
1!
12
1<
1:
19
1+
1)
1(
#80000
0$
0#
0"
0!
05
04
03
02
0<
0+
#85000
1!
12
1<
1+
#90000
1"
0!
13
02
0:
09
06
0)
0(
0%
#95000
1!
12
1:
19
16
1)
1(
1%
