SistemadeIrrigacao/simulation/qsim/SistemaDeIrrigacao.msim.vcd
$comment
	File created using the following command:
		vcd file SistemaDeIrrigacao.msim.vcd -direction
$end
$date
	Wed Jun 05 20:36:09 2024
$end
$version
	ModelSim Version 2020.1
$end
$timescale
	1ps
$end

$scope module freq_1_vlg_vec_tst $end
$var reg 1 ! clk $end
$var wire 1 " clk7seg $end
$var wire 1 # clkLeds $end

$scope module i1 $end
$var wire 1 $ gnd $end
$var wire 1 % vcc $end
$var wire 1 & unknown $end
$var tri1 1 ' devclrn $end
$var tri1 1 ( devpor $end
$var tri1 1 ) devoe $end
$var wire 1 * clk~combout $end
$var wire 1 + dff_0|Q~regout $end
$var wire 1 , dff_1|Q~regout $end
$var wire 1 - dff_2|Q~regout $end
$var wire 1 . dff_3|Q~regout $end
$var wire 1 / dff_4|Q~regout $end
$var wire 1 0 dff_5|Q~regout $end
$var wire 1 1 dff_6|Q~regout $end
$var wire 1 2 dff_7|Q~regout $end
$var wire 1 3 dff_8|Q~regout $end
$var wire 1 4 dff_9|Q~regout $end
$var wire 1 5 dff_10|Q~regout $end
$var wire 1 6 dff_11|Q~regout $end
$var wire 1 7 dff_12|Q~regout $end
$var wire 1 8 dff_13|Q~regout $end
$var wire 1 9 dff_14|Q~regout $end
$var wire 1 : dff_15|Q~regout $end
$var wire 1 ; dff_16|Q~regout $end
$var wire 1 < dff_17|Q~regout $end
$var wire 1 = dff_18|Q~regout $end
$var wire 1 > dff_19|Q~regout $end
$var wire 1 ? dff_20|Q~regout $end
$var wire 1 @ dff_21|Q~regout $end
$var wire 1 A dff_22|Q~regout $end
$var wire 1 B dff_23|Q~regout $end
$var wire 1 C dff_24|Q~regout $end
$var wire 1 D dff_25|Q~regout $end
$upscope $end
$upscope $end
$enddefinitions $end
#0
$dumpvars
0!
0"
0#
0$
1%
x&
1'
1(
1)
0*
0+
0,
0-
0.
0/
00
01
02
03
04
05
06
07
08
09
0:
0;
0<
0=
0>
0?
0@
0A
0B
0C
0D
$end
#5000
1!
1*
1+
1,
1-
1.
1/
10
11
12
13
14
15
16
17
18
19
1:
1#
1;
1<
1=
1>
1?
1@
1A
1B
1C
1D
1"
#10000
0!
0*
#15000
1!
1*
0+
#20000
0!
0*
#25000
1!
1*
1+
0,
#30000
0!
0*
#35000
1!
1*
0+
#40000
0!
0*
#45000
1!
1*
1+
1,
0-
#50000
0!
0*
#55000
1!
1*
0+
#60000
0!
0*
#65000
1!
1*
1+
0,
#70000
0!
0*
#75000
1!
1*
0+
#80000
0!
0*
#85000
1!
1*
1+
1,
1-
0.
#90000
0!
0*
#95000
1!
1*
0+
