SistemadeIrrigacao/simulation/qsim/SistemaDeIrrigacao.msim.vcd
$comment
	File created using the following command:
		vcd file SistemaDeIrrigacao.msim.vcd -direction
$end
$date
	Thu Jun 06 00:23:53 2024
$end
$version
	ModelSim Version 2020.1
$end
$timescale
	1ps
$end

$scope module deslocamento_coluna_leds_vlg_vec_tst $end
$var reg 1 ! clk $end
$var wire 1 " coluna [4] $end
$var wire 1 # coluna [3] $end
$var wire 1 $ coluna [2] $end
$var wire 1 % coluna [1] $end
$var wire 1 & coluna [0] $end

$scope module i1 $end
$var wire 1 ' gnd $end
$var wire 1 ( vcc $end
$var wire 1 ) unknown $end
$var tri1 1 * devclrn $end
$var tri1 1 + devpor $end
$var tri1 1 , devoe $end
$var wire 1 - clk~combout $end
$var wire 1 . coluna[1]~reg0_regout $end
$var wire 1 / coluna[2]~reg0_regout $end
$var wire 1 0 coluna[3]~reg0_regout $end
$var wire 1 1 coluna[4]~reg0_regout $end
$var wire 1 2 coluna[0]~reg0_regout $end
$upscope $end
$upscope $end
$enddefinitions $end
#0
$dumpvars
0!
1&
0%
0$
0#
0"
0'
1(
x)
1*
1+
1,
0-
0.
0/
00
01
02
$end
#5000
1!
1-
12
1.
1%
0&
#10000
0!
0-
#15000
1!
1-
1/
0.
1$
0%
#20000
0!
0-
#25000
1!
1-
10
0/
1#
0$
#30000
0!
0-
#35000
1!
1-
11
00
1"
0#
#40000
0!
0-
#45000
1!
1-
02
01
0"
1&
#50000
0!
0-
#55000
1!
1-
12
1.
1%
0&
#60000
0!
0-
#65000
1!
1-
1/
0.
1$
0%
#70000
0!
0-
#75000
1!
1-
10
0/
1#
0$
#80000
0!
0-
#85000
1!
1-
11
00
1"
0#
#90000
0!
0-
#95000
1!
1-
02
01
0"
1&
